Frank’s Goldfish Projects - Topic Modeling
…
## Take the repeated test one out for now.
analysis_prj = unique_prj |> 
  anti_join(repeated_text, by="id") |> 
  mutate(year = lubridate::year(StartDate)) |>
  inner_join(gtr_desc, by="id")

Review Abstract Word Count of Abstract

Code

analysis_prj |> 
  count(ProjectCategory,sort=T)

# A tibble: 28 × 2
   ProjectCategory                        n
   <chr>                              <int>
 1 Studentship                         1338
 2 Research Grant                      1277
 3 Collaborative R&D                    402
 4 Feasibility Studies                  202
 5 Fellowship                           192
 6 Knowledge Transfer Partnership       132
 7 EU-Funded                             77
 8 Small Business Research Initiative    65
 9 Study                                 54
10 Training Grant                        49
# ℹ 18 more rows
…
topic 8 probably sounds like biology. topic 9 sounds like material science.

It also interesting to see that although term “artificial intelligence” is frequently linked together, the “beta” score is actually low.

Topic Against Institution

topics |> 
  tidy("gamma") |> 
  filter(gamma > 0.75) |> 
  left_join(gtr_desc,c("document"="id"))

# A tibble: 1,762 × 4
   document                             topic gamma abstractText                
   <chr>                                <int> <dbl> <chr>                       
 1 D3519C9D-7595-4C4E-983B-8B1B392C7257     1 0.981 "PROJECT APPROACH\nThe C-ST…
 2 8FD8E9CE-3E40-4FF5-8C5B-F70059C8204B     1 0.801 "We remember many events fr…
 3 2DF9A824-3A1B-4660-A686-7084E793B434     1 0.915 "Digital games have extraor…
 4 A399E04D-43CF-44D4-A124-31C33772D5C8     1 0.927 "The project provides a pla…
 5 B01F4112-691B-4D55-96E5-6FE1A82AFFE2     1 0.913 "The digital games industry…
 6 31AD9973-70D5-4514-B07B-1BC2D8FBDFB3     1 0.868 "This research will explore…
 7 7E7A8295-0B52-46C2-A6C8-1956056FE209     1 0.999 "In partnership with the As…
 8 08CA7336-763E-4976-8849-FA89EA858B44     1 0.943 "Up to 4% of people who are…
 9 29CB95C0-B9E4-4918-A58D-5BC8B7D85E4D     1 0.893 "Around 6,200 per year are …
10 0FE2D3FE-0C65-42C6-BBBE-2249D2C1AEFD     1 0.888 "Contemporary art instituti…
# ℹ 1,752 more rows
…
