Frank’s Goldfish Projects - Resampleing Method Note
…
## to Fit a Model: you have include the training data again
lm_fit <- fit(lm_wflow, ames_train)

Resample (Cross Validation)

rset returning function used for cross validation:

## three different way of creating fold samples:s
vfold_cv(ames_train, v = 10, repeats = 5)

#  10-fold cross-validation repeated 5 times 
# A tibble: 50 × 3
   splits             id      id2   
   <list>             <chr>   <chr> 
 1 <split [2107/235]> Repeat1 Fold01
 2 <split [2107/235]> Repeat1 Fold02
 3 <split [2108/234]> Repeat1 Fold03
 4 <split [2108/234]> Repeat1 Fold04
 5 <split [2108/234]> Repeat1 Fold05
 6 <split [2108/234]> Repeat1 Fold06
 7 <split [2108/234]> Repeat1 Fold07
 8 <split [2108/234]> Repeat1 Fold08
 9 <split [2108/234]> Repeat1 Fold09
10 <split [2108/234]> Repeat1 Fold10
# ℹ 40 more rows
…
