Frank’s Goldfish Projects - Work with AMES Data
…
Getting data out, according to receipt example, instead of train or predict you do so by prep and bake.

This results in scoring of the two latent feature for each individual row.

#
pca_estimate = pca_trans |> prep()
pca_data <- bake(pca_estimate,ames_train)
pca_data

# A tibble: 2,342 × 2
     PC1    PC2
   <dbl>  <dbl>
 1 2.54   0.902
 2 2.13   2.64 
 3 3.35   0.523
 4 2.69  -0.442
 5 2.72  -1.64 
 6 1.10   1.50 
 7 3.27   0.386
 8 2.03   0.253
 9 3.59  -0.173
10 0.429 -2.67 
# ℹ 2,332 more rows
…
